{
    "cordova-plugin-splashscreen": {
        "source": {
            "type": "git",
            "url": "https://github.com/apache/cordova-plugin-splashscreen.git",
            "subdir": "."
        }
    },
    "cordova-plugin-vibration": {
        "source": {
            "type": "git",
            "url": "https://git-wip-us.apache.org/repos/asf/cordova-plugin-vibration.git",
            "subdir": "."
        }
    },
    "cordova-plugin-dialogs": {
        "source": {
            "type": "git",
            "url": "https://git-wip-us.apache.org/repos/asf/cordova-plugin-dialogs.git",
            "subdir": "."
        }
    },
    "cordova-plugin-device": {
        "source": {
            "type": "registry",
            "id": "cordova-plugin-device"
        },
        "is_top_level": true,
        "variables": {}
    },
    "cordova-plugin-network-information": {
        "source": {
            "type": "registry",
            "id": "cordova-plugin-network-information"
        },
        "is_top_level": true,
        "variables": {}
    },
    "cordova-plugin-crosswalk-webview": {
        "source": {
            "type": "registry",
            "id": "cordova-plugin-crosswalk-webview@2.1.0"
        },
        "is_top_level": true,
        "variables": {}
    },
    "cordova-plugin-whitelist": {
        "source": {
            "type": "registry",
            "id": "cordova-plugin-whitelist@1.3.0"
        },
        "is_top_level": true,
        "variables": {}
    },
    "cordova-plugin-geolocation": {
        "source": {
            "type": "registry",
            "id": "cordova-plugin-geolocation"
        },
        "is_top_level": true,
        "variables": {}
    },
    "cordova-plugin-compat": {
        "source": {
            "type": "registry",
            "id": "cordova-plugin-compat"
        },
        "is_top_level": false,
        "variables": {}
    },
    "cordova-plugin-globalization": {
        "source": {
            "type": "registry",
            "id": "cordova-plugin-globalization"
        },
        "is_top_level": true,
        "variables": {}
    },
    "cordova-plugin-toast": {
        "source": {
            "type": "registry",
            "id": "cordova-plugin-toast"
        },
        "is_top_level": true,
        "variables": {}
    },
    "cordova-plugin-x-toast": {
        "source": {
            "type": "registry",
            "id": "cordova-plugin-x-toast"
        },
        "is_top_level": true,
        "variables": {}
    }
}